commit ea5c95b92e1686e46155a644e0a1c38c1358e3c6
Author: dev_valente <valenleo313@gmail.com>
Date:   Wed Mar 14 12:57:31 2018 -0430

    Se agrega Footer

commit ef0e1eeec7fa0645623fdff3c1c493a00a68066b
Author: dev_valente <valenleo313@gmail.com>
Date:   Wed Mar 14 12:16:19 2018 -0430

    Estilo corregido

commit a6a0108f19bee35cdd7abeeead2d66719c6dd816
Author: dev_valente <valenleo313@gmail.com>
Date:   Wed Mar 14 12:12:59 2018 -0430

    Subimos el estilo

commit 9c2814b815442816870ad43703b91cc50a08e01e
Author: dev_valente <valenleo313@gmail.com>
Date:   Wed Mar 14 12:06:55 2018 -0430

    inicio
